000007D9
000007E6
000007F5
00000803
00000814
00000818
0000081B
00000826
00000835
00000847
00000856
00000863
00000877
00000890
000008B4
000008CB
000008E0
000008F2
00000901
0000090D
00000915
0000091A
00000917
00000914
00000903
000008F5
000008DE
000008D8
000008C9
00000880
000008B6
000008A2
000008AE
000008AE
0000089B
00000892
00000889
00000875
0000085E
00000846
0000082C
0000080E
000007F1
000007D2
000007BF
000007AD
000007A2
00000792
0000078F
0000078C
00000798
0000079D
0000079B
000007A6
000007A5
000007AC
000007B2
000007B4
000007B7
000007B8
000007B7
000007B9
000007C8
000007D9
000007E0
000007F2
0000080E
00000827
00000844
00000865
0000087E
00000898
000008B3
000008C0
000008D0
000008DE
000008E5
000008E4
000008DF
000008E0
000008D8
000008E7
000008E4
000008E8
000008F1
000008EE
000008F5
000008F9
000008F7
000008F6
000008DA
000008C4
000008E3
000008B7
0000089C
0000087E
0000085A
00000840
0000082E
00000817
00000805
000007F5
000007E3
000007E1
000007E0
000007D9
000007D0
000007C9
000007BE
000007B7
000007B4
000007A3
00000798
00000784
00000785
00000781
00000784
00000787
00000790
0000079C
000007A9
000007C9
000007E5
000007F8
00000813
0000082C
0000083F
00000853
00000868
00000875
0000087A
00000883
0000088D
00000897
000008A1
000008B1
000008BC
000008C2
000008D0
000008E0
000008F8
00000909
00000915
00000916
00000919
00000917
00000915
0000090A
000008FD
000008E0
000008C5
000008AF
00000832
00000888
00000874
00000862
0000084F
00000841
00000846
00000831
00000829
00000824
00000806
00000802
000007F4
000007E7
000007C4
000007B4
00000796
0000078B
00000782
00000779
00000770
0000076E
00000771
0000077F
00000792
000007A7
000007BA
000007CC
000007D7
000007E4
000007F2
00000802
00000814
0000081C
0000081D
00000829
0000083A
0000084A
00000856
00000866
0000087D
00000893
000008B2
000008D2
000008E4
000008F6
00000907
0000090E
00000931
00000915
00000914
00000908
000008FB
000008EB
000008E0
000008E3
000008CD
000008C4
000008B7
000008B0
000008B1
000008A3
0000088D
000008AE
00000883
00000874
00000860
00000847
0000082C
0000080D
000007F1
000007D4
000007BE
000007AF
000007A0
00000799
0000078D
00000790
0000079B
0000079F
000007A0
000007A5
000007A7
000007B1
000007B2
000007B5
000007CB
000007AE
000007B1
000007BB
000007C8
000007D7
000007E1
000007F5
00000811
0000082B
00000850
0000086C
00000880
000008A0
000008B2
000008C8
000008D4
000008DF
000008E0
000008E4
000008DE
000008DE
00000000
000008E6
000008E2
000008E6
000008E6
000008E7
000008ED
000008F6
000008F3
000008F2
000008E4
000008DA
000008CB
000008BA
000008A4
00000810
00000856
00000840
00000834
00000819
00000805
000007F1
000007DA
000007D1
000007C8
000007C9
000007C9
000007C1
000007B7
000007B2
000007B0
000007A6
000007A4
00000799
00000789
00000782
00000786
00000787
0000078B
0000079A
000007A5
000007B7
000007D7
000007F9
0000080C
00000829
0000083E
00000850
00000863
0000087B
00000880
00000890
0000088F
00000896
000008A4
000008AF
000008BA
000008C8
000008D3
000008EC
000008FF
0000090A
00000918
0000091E
0000091C
0000091A
00000912
00000907
000008F3
00000000
000008C1
0000089E
000008A3
00000889
00000879
00000860
00000853
0000082A
00000856
0000083C
00000830
00000822
00000815
00000802
000007F6
000007DB
000007CC
000007AF
00000799
0000078B
00000782
00000779
0000075E
00000771
0000076F
0000077D
00000798
000007AF
000007B6
000007CA
000007D3
000007E5
000007F7
00000801
00000813
00000818
0000081D
00000827
00000838
00000847
00000854
0000086E
0000087D
00000892
000008BC
000008D5
000008E5
000008F4
00000901
00000910
00000910
00000919
00000914
00000906
000008F6
000008E9
000008DE
000008D4
000008CD
000008C2
0000089F
000008B2
000008BA
000008A1
000008A2
00000894
00000887
00000879
00000000
00000830
0000083B
00000806
000007EF
000007D2
000007BF
000007AF
00000799
00000797
0000078D
0000078D
0000079A
0000079F
0000079C
000007A2
000007AA
000007AD
000007B2
000007B7
000007BB
000007B8
000007B6
000007BD
000007C8
000007D2
000007E2
000007F6
00000806
0000082A
0000084E
00000865
0000087B
00000896
000008AF
000008BF
000008D2
000008E1
000008E9
000008E6
000008DB
000008E3
000008E0
000008EB
000008E3
000008E8
000008E1
000008EA
000008F2
000008F9
000008F4
000008F2
000008E9
000008D7
000008CF
000008B9
000008A9
0000087D
0000085E
00000840
00000830
00000819
00000801
000007E2
000007F2
000007CF
000007D8
000007D5
000007CB
00000000
000007BD
000007B6
000007AF
000007AD
0000079D
00000794
0000077D
0000077E
0000077C
00000785
00000790
0000079A
000007A1
000007BC
000007DA
000007F8
0000080D
00000828
0000083F
00000854
00000866
00000875
00000880
00000884
0000088F
00000899
000008A2
000008AF
000008BA
000008C3
000008D2
000008DE
000008FC
00000908
00000914
0000091E
0000091D
00000919
00000914
00000909
000008F8
000008D8
000008C6
000008AE
0000089C
00000888
00000879
0000085F
0000084D
00000847
0000084E
00000845
0000082B
00000824
00000815
000007F7
00000804
000007E5
000007C6
000007AD
0000079A
0000078C
00000786
00000777
0000076C
00000770
00000771
0000077B
00000000
000007A4
000007B9
000007CA
000007D5
000007E5
000007FB
000007FF
0000080E
00000816
0000081B
0000082A
00000838
00000845
0000085A
00000864
0000087C
00000893
000008B8
000008D4
000008E3
000008F6
00000901
0000090F
00000914
00000916
00000911
00000905
000008F7
000008E7
000008DF
000008D5
000008CC
000008C2
000008B8
000008AC
000008C3
000008B1
000008A5
00000896
00000884
00000877
0000085E
0000085F
00000829
0000080A
000007EC
000007CE
000007BE
000007C9
000007A4
0000078C
00000791
0000078A
0000079C
0000079F
000007A0
000007A8
000007AB
000007AF
000007B5
000007B9
000007B8
000007B9
000007AE
000007B9
000007C8
000007D9
000007E3
00000000
0000080D
00000826
0000084A
0000086A
00000886
000008A0
000008B3
000008C4
000008D4
000008DF
000008E4
000008DE
000008E4
000008E3
000008E6
000008E2
000008E7
000008E8
000008E5
000008EC
000008F6
000008F7
000008F3
000008F2
000008E9
000008D9
000008CE
000008BB
0000089F
00000885
00000867
00000845
0000082C
0000081D
00000800
000007DC
000007D9
000007D2
000007D4
000007D3
000007D1
000007CA
000007C3
000007B4
000007B2
000007AF
000007A0
00000794
00000787
0000077F
00000784
00000787
00000793
0000079C
000007A7
000007BA
000007DE
000007FA
00000811
00000830
00000841
00000852
00000866
00000877
0000087B
00000884
0000088D
00000899
00000000
000008B0
000008BF
000008C6
000008D5
000008E9
000008FA
0000090C
00000917
0000091E
0000091D
0000091A
00000916
0000090B
000008F7
000008DE
000008C3
000008B5
0000089A
0000088F
00000879
00000852
00000853
00000840
00000842
0000083A
00000830
00000824
00000817
00000804
000007FE
000007E4
000007D1
000007BA
0000079D
0000078E
00000771
0000078F
00000776
00000773
00000766
00000779
00000784
0000079E
000007B2
000007C5
000007D5
000007E6
000007F6
00000809
0000081B
00000824
00000825
0000082F
00000839
00000848
00000857
00000866
0000087A
00000893
000008BD
000008D3
000008E7
000008F2
00000903
00000911
0000091C
00000919
00000911
00000000
000008F9
000008EA
000008E4
000008D7
000008C7
000008C4
000008BD
000008BA
000008BC
000008B3
000008A5
00000897
00000882
00000878
0000085F
00000846
0000082A
0000080C
000007EF
000007CE
000007C2
000007AB
000007C6
00000798
0000078E
00000790
0000079C
0000079C
000007C9
000007B2
000007A3
000007B2
000007B6
000007B7
000007B7
000007B7
000007B4
000007BF
000007C6
000007D3
000007E6
000007F4
0000080B
00000829
00000848
0000086D
00000883
0000089D
000008B1
000008C2
000008D4
000008DF
000008E7
000008EE
000008E0
000008E3
000008E8
000008EB
000008E6
000008E4
000008E9
000008E6
000008F0
000008FA
000008E4
000008F4
000008E7
000008DB
00000000
000008BB
0000089E
00000888
00000864
00000846
00000830
0000081F
00000804
000007F6
000007DD
000007D2
000007D4
000007CF
000007CC
000007C6
000007B3
000007AE
000007AF
000007A7
0000079E
00000792
000007A3
00000781
00000772
0000077F
0000078C
0000079A
000007AA
000007C1
000007E4
000007F3
00000813
00000828
00000840
00000856
00000867
00000873
0000087B
0000087B
00000885
00000897
000008A3
000008B1
000008BB
000008C8
000008D8
000008F1
00000901
00000913
0000091E
00000913
0000091D
0000091B
0000091A
00000907
000008F8
000008D8
000008C7
000008AC
0000089D
0000088B
00000876
00000864
00000853
0000084B
0000084B
0000083F
0000083B
00000000
00000813
00000802
000007F7
000007DB
000007CF
000007B4
0000079B
0000078E
0000078A
0000077F
00000771
00000772
0000076E
0000077B
00000790
0000079B
000007CC
000007CA
000007DA
000007E6
000007F9
00000809
00000817
0000081C
00000821
0000082B
00000835
00000849
00000858
0000086E
0000087B
00000893
000008B2
000008D2
000008E4
000008F8
00000901
00000912
00000914
0000091D
00000916
0000090C
000008FB
000008E6
000008E3
000008D9
000008CE
000008C2
000008B7
000008AC
000008AC
000008AB
000008A3
0000089C
00000887
00000872
00000860
0000084A
00000832
00000814
000007F2
000007D5
000007BD
000007B1
000007A1
00000796
0000078E
0000078C
00000000
000007A1
000007A3
0000079A
000007A7
000007A9
000007B5
000007B7
000007BB
0000079A
000007C4
000007B2
000007CD
000007D9
000007E0
000007F9
0000080C
0000082A
00000850
00000869
00000882
000008A0
000008B4
000008C4
000008D4
000008DC
000008E4
000008DC
000008DE
000008DC
000008E4
000008E4
000008E3
000008E2
000008E6
000008EE
000008F8
000008FA
000008FD
000008F2
000008E5
000008DE
000008CA
000008B9
00000899
00000884
00000865
00000843
0000082D
00000819
00000801
000007F2
000007DE
000007D1
000007D2
000007CF
000007CA
000007C4
000007BB
000007B3
000007B2
000007A5
0000079D
00000798
00000785
0000079A
00000786
00000786
00000791
00000000
000007A8
00000813
000007E6
000007F3
00000810
0000082B
0000083D
00000854
00000861
00000875
0000087E
00000881
0000088D
00000896
0000089E
000008AF
000008B9
000008D0
000008D8
000008EE
000008FD
0000090A
0000091A
0000091D
0000091A
0000091B
00000918
00000908
000008FC
000008D5
000008C1
000008A8
0000089D
00000887
0000087B
00000862
00000855
00000850
0000084C
00000842
00000834
00000825
00000812
00000806
000007F5
000007E2
000007C8
000007B1
00000797
00000788
00000784
0000077B
00000772
00000770
0000076F
0000077B
00000790
0000078F
000007AE
000007CA
000007D6
000007E6
000007FE
000007E1
00000805
0000081E
0000081D
00000829
00000000
0000084B
00000856
00000866
0000087C
00000892
000008BA
000008D5
000008E6
000008F2
00000903
00000912
0000091A
0000091A
00000913
0000090D
000008F7
000008E9
000008E4
000008E2
000008CE
000008C1
000008BA
000008B2
000008B1
000008AE
0000089D
00000895
0000088D
00000876
0000085E
0000084A
00000830
00000818
000007F3
000007D3
000007C4
000007B3
000007A0
00000798
0000078F
0000078A
00000792
0000079E
0000079E
000007A4
000007A5
000007AC
000007B5
000007B9
000007BB
000007C5
000007AF
000007BA
000007CA
000007DD
000007DE
00000804
00000810
00000824
00000846
0000086F
00000881
000008A2
000008B3
000008C5
000008CC
000008E1
000008E4
00000000
000008DD
000008E3
000008E8
000008EB
000008E9
000008E8
000008EA
000008E7
000008F4
000008FD
000008F3
000008F1
000008E9
000008D8
000008CF
000008B7
000008A3
0000088A
00000868
00000842
00000834
0000081B
00000806
000007F1
000007DF
000007D0
000007CF
000007D1
000007C9
000007C4
000007B9
000007B7
000007B2
000007AD
000007A7
00000798
00000787
00000780
00000786
0000078B
0000078F
0000079E
000007A3
000007BC
000007BF
000007F6
00000809
0000082C
0000083F
00000852
0000084C
00000887
00000887
0000088C
00000893
0000089A
000008AA
000008B3
000008BC
000008C6
000008C7
000008E2
000008FD
0000090F
00000917
0000091E
0000091D
0000091B
00000000
0000090A
000008FD
000008DB
000008C5
000008B4
000008A4
0000088B
00000873
00000863
00000853
0000084A
00000846
0000083C
00000831
00000824
00000815
00000806
000007F6
000007DC
000007CB
000007B0
00000799
00000789
00000785
00000775
00000773
00000770
00000775
0000077D
00000795
000007AB
000007BC
000007C8
000007D9
000007E9
000007FA
00000809
000007FB
00000808
0000081B
0000082A
00000836
00000847
00000839
00000864
0000087D
00000893
000008BD
000008D4
000008E8
000008F6
00000903
00000915
0000091B
0000091A
00000913
00000909
000008FD
000008E6
000008E4
000008D7
000008CD
000008C4
000008BD
000008AD
000008AA
000008AB
000008A1
00000000
00000882
000008E3
000008E5
000008E8
000008E7
000008F5
00000900
00000902
00000900
000008F8
000008E2
000008D6
000008CD
000008B8
0000089C
00000883
00000864
0000084A
0000082C
00000815
00000803
000007F2
000007DF
000007B6
000007C7
000007CA
000007C5
000007C2
000007BE
000007AE
000007AF
000007AD
000007A4
00000797
00000789
0000077D
0000077F
00000784
00000789
0000079B
000007A6
000007BB
000007D6
000007F5
00000805
0000082B
00000840
00000851
00000866
00000877
00000880
0000088B
00000890
0000089C
000008A2
000008B3
000008B7
000008C3
000008D4
000008DE
000008F8
00000908
00000917
0000091A
0000091C
00000918
0000091A
00000908
00000000
000008E3
000008C7
000008AF
0000089A
00000887
00000876
00000861
0000084F
0000084D
00000850
0000083A
0000082C
00000822
00000815
0000080F
000007F6
000007D6
000007C5
000007B3
0000079A
0000078D
0000077A
00000775
00000771
00000772
00000772
0000077E
00000799
000007AE
000007B9
000007CD
000007D8
000007EA
000007F8
00000806
0000080E
00000818
0000081E
00000824
00000836
00000848
00000859
00000867
0000087C
00000892
000008B5
000008D0
000008DB
00000900
00000909
00000909
00000919
0000091C
00000918
00000908
000008FB
000008E9
000008E5
000008D5
000008CC
000008C3
000008B3
000008AF
000008AE
000008AC
000008A1
00000893
00000885
00000000
0000083B
0000084A
0000082A
00000814
000007EF
000007D6
000007AD
000007C7
000007A3
00000797
0000078A
0000078B
00000792
0000079C
0000079F
000007A5
000007A4
000007AD
000007B6
000007B8
000007C3
000007B7
000007B6
000007BD
000007C9
000007D9
000007E6
000007F3
0000080C
00000829
0000084C
0000086A
00000882
000008A0
000008B4
000008C6
000008D2
000008DE
000008DC
000008E9
000008DE
000008DF
000008E0
000008E5
000008E2
000008E8
000008E8
000008E8
000008FA
000008FF
000008F2
000008F1
000008E6
000008DC
000008CC
000008B8
00000898
00000881
0000085D
00000841
00000831
00000817
00000804
000007F3
000007DF
000007D5
00000817
000007DE
00000000
000007C9
000007BF
000007B5
000007B1
000007A6
00000797
00000785
0000077F
00000779
0000077D
0000077F
00000788
000007A1
000007AF
000007C7
000007E2
000007FB
00000811
0000082B
0000083E
00000842
00000869
00000875
00000885
0000088A
00000891
00000895
000008A6
000008AE
000008B9
000008C9
000008D2
000008DE
000008F9
0000090E
00000916
00000919
0000091C
0000091A
00000918
0000090A
000008FC
000008E0
000008C5
000008AC
000008A0
0000088C
00000877
00000860
0000084C
00000846
00000838
00000845
0000082E
00000820
0000080E
00000801
0000080E
000007E7
000007B5
000007B0
000007A2
00000789
00000782
0000077E
0000076F
0000076F
00000772
00000000
0000078E
000007AC
000007C1
000007CA
000007D6
000007E7
000007F9
00000806
00000819
00000820
0000081F
00000828
00000839
00000851
00000858
00000868
00000880
0000089C
000008BE
000008D3
000008E1
000008F8
00000900
00000910
0000091B
0000091B
00000916
0000090A
000008F2
000008EB
000008E2
000008D7
000008CA
000008C1
000008B9
000008B3
000008B5
000008AD
000008A3
00000895
00000884
0000087B
0000085E
00000864
00000831
00000813
000007EF
000007CF
000007BF
00000785
000007AC
00000790
0000078F
0000078E
00000797
0000079E
000007A3
000007A5
000007AB
000007AB
000007B6
000007B5
000007B6
000007B9
000007B4
000007BB
000007DF
000007CF
00000000
000007F8
0000080C
0000082D
0000084F
00000868
00000885
000008A0
000008B1
000008C5
000008D5
000008E0
000008E6
000008E7
000008E2
000008DE
000008E0
000008EA
000008E6
000008E8
000008EA
000008EE
000008F5
000008F9
000008F6
000008F0
000008EA
000008DA
000008CC
000008BD
000008A5
00000885
00000864
0000084B
0000082E
0000081C
0000080B
000007F3
000007DF
000007CE
000007D8
000007F0
000007D2
000007B7
000007B7
000007B7
000007B1
000007A9
0000079B
00000790
0000078B
00000785
00000787
00000788
00000791
0000079C
000007AB
000007BF
000007E0
00000804
00000816
0000082B
00000841
00000852
0000086A
00000875
00000880
0000088B
0000088C
00000000
000008A9
000008B3
000008BA
000008C9
000008CC
000008E5
000008FB
0000090A
00000918
0000091C
0000091B
0000091C
00000917
00000907
000008F7
000008D5
000008C2
000008AE
0000089D
0000088C
0000087B
0000085D
00000850
00000849
00000846
0000083E
0000084C
00000824
00000818
00000802
000007FA
000007DD
0000079B
000007BB
00000793
0000078C
00000784
0000077C
0000076A
00000773
00000777
00000781
0000078A
000007AD
000007B8
000007CD
000007D9
000007E8
000007FA
00000805
00000812
0000081D
00000821
00000829
0000083C
00000847
00000858
0000086C
0000087E
00000893
000008BC
000008D6
000008E7
000008F6
000008FF
0000090D
00000919
00000915
00000000
00000909
000008FA
000008EB
000008E3
000008DD
000008C7
000008C0
000008B8
000008AF
000008AD
000008AD
000008AD
00000894
00000887
00000871
0000085E
00000848
00000837
00000812
000007F8
000007D7
000007BB
000007B1
000007B6
0000079B
0000078A
00000786
00000789
00000797
0000079D
000007A2
000007A6
000007AC
000007B2
000007BC
000007BF
000007C4
000007B9
000007B7
000007CB
000007DA
000007E2
000007F5
0000080B
00000821
00000844
00000867
00000880
0000089F
000008B8
000008C6
000008D2
000008DE
000008E5
000008E3
000008DF
000008DF
000008E5
000008E4
000008E3
000008E6
000008E4
000008EA
000008F9
000008FA
000008F5
000008F0
000008E6
00000000
000008CB
000008B8
0000089C
00000881
0000085D
00000840
0000082D
00000816
00000800
000007F0
000007D5
000007D1
000007D9
000007D5
000007C9
000007BB
000007B6
000007C4
000007B6
000007AA
0000079E
0000078F
00000784
00000783
00000788
00000787
0000078C
0000079E
000007A7
000007B9
000007DB
000007F7
0000080D
00000828
00000840
00000851
00000867
00000876
00000884
00000890
0000088E
00000897
000008A5
000008B5
000008BC
000008C7
000008D2
000008E1
000008F9
00000908
00000917
00000918
0000091D
00000917
00000915
00000906
00000900
000008E6
000008C5
000008AE
000008A0
0000088D
00000875
00000861
00000850
00000841
00000840
0000083C
00000000
00000821
00000844
00000805
000007EF
000007DC
000007C5
000007B5
00000788
000007A0
0000077B
00000777
0000076D
00000772
00000776
00000781
0000079F
000007AC
000007BD
000007CB
000007DB
000007E5
000007F5
000007FB
00000805
0000080D
00000815
00000820
0000083B
00000843
00000855
0000086B
0000087F
00000897
000008C0
000008D0
000008E9
000008F7
000008FE
0000090B
00000918
00000915
0000090C
00000900
000008F2
000008E6
000008DD
000008D3
000008CA
000008C3
000008BD
000008B5
000008B6
000008AF
000008A2
00000895
00000887
00000872
0000085C
00000842
0000082B
0000080A
000007EE
000007DF
000007C0
000007B0
0000079E
00000794
000007A9
00000000
00000784
00000796
000007A1
000007A3
000007A6
000007A3
000007B4
000007BB
000007B7
000007BE
000007B9
000007BD
000007CA
000007D9
000007E7
000007F3
0000080B
00000827
0000084A
00000868
00000882
000008A0
000008B4
000008C4
000008D4
000008E1
000008E7
000008E9
000008E0
000008E3
000008E7
000008E2
000008E6
000008D8
000008E9
000008E8
000008F2
000008F0
000008F4
000008F1
000008E6
000008DA
000008CB
000008BF
000008A8
0000088B
00000868
00000847
00000830
00000819
0000080A
000007F3
000007DD
000007CB
000007C1
000007CC
000007C8
000007C3
000007BC
000007B5
000007A8
000007BC