00000490
000004AF
000004B1
000004B9
000004BC
000004B9
000004B6
000004B1
000004A6
00000499
00000499
0000048C
0000048E
00000486
00000488
00000490
00000493
0000049E
000004AA
000004B1
000004B4
000004C1
000004BD
000004B6
000004B6
000004B3
0000049E
0000049A
00000493
0000048C
00000490
0000048C
00000488
00000490
00000491
000004A1
000004AD
000004B2
000004B5
000004BA
000004C0
000004B9
00000C2E
00000BFB
00000BE5
00000BDD
00000BD3
00000BCF
00000BD0
00000BCB
00000BCA
00000BD2
00000BD7
00000BE1
00000BF2
00000BF9
00000BFB
00000BFE
00000C03
00000C08
00000C04
00000BFF
00000BEC
00000BC0
00000BCB
00000BCD
00000BCE
00000BCB
00000BCB
00000BBA
00000BC9
00000BEA
00000BEE
00000BF7
00000BF4
00000BFE
00000C01
00000C0B
00000C08
00000BFA
00000BE3
00000BDA
00000BD7
00000BCE
00000BCA
00000BCB
00000BCC
00000BD2
00000BD6
00000BEB
00000BF6
00000BF6
00000BFB
00000BFF
00000C00
00000C03
00000C04
00000BF7
00000BEB
00000BDE
00000BD4
00000BD1
00000BC8
00000BCD
00000BC9
00000BCF
00000BD4
00000BE1
00000BF4
00000BF7
00000BF9
00000C02
00000C07
00000C02
00000C04
00000BFF
00000BE9
00000BE0
00000BD7
00000BD5
00000BC8
00000BCC
00000BD0
00000BD0
00000BD6
00000BE1
00000BF2
00000BF7
00000BFA
00000C02
00000C06
00000C04
00000C2E
00000BFF
00000BEC
00000BDF
00000BD5
00000BD0
00000BA1
00000BD9
00000BC7
00000BD2
00000BD6
00000BD9
00000BEE
00000BF5
00000BF7
00000BFC
00000C02
00000C0A
00000C06
00000BFF
00000BEE
00000BDE
00000BD9
00000BD2
00000BD0
00000BCB
00000BCC
00000BD0
00000BCC
00000BD6
00000BEA
00000BF1
00000BF7
00000BFC
00000BFF
00000BFF
00000BFC
00000BF9
00000BF2
00000BE4
00000BD7
00000BCE
00000BCB
00000BCC
00000BCC
00000BD6
00000BD3
00000BE2
00000BF0
00000BF9
00000BFE
00000BFC
00000C03
00000C05
00000C04
00000BFB
00000BE8
00000BD9
00000BD4
00000BCE
00000BD2
00000BC7
00000BCE
00000BD3
00000BDD
00000BE7
00000BF4
00000BF8
00000BFF
00000BFC
00000BFE
00000BFF
00000BFC
00000BF5
00000BF2
00000BE6
00000BCF
00000BCE
00000BD5
00000BCB
00000BCF
00000BCE
00000BD6
00000BE4
00000BF4
00000BF7
00000BFA
00000C04
00000C0A
00000C04
00000C04
00000BFA
00000BE9
00000BDF
00000BD7
00000BD3
00000BD0
00000BC9
00000BCA
00000BD0
00000BDA
00000BE0
00000BF2
00000BF3
00000BFB
00000C00
00000C08
00000C06
00000BFA
00000BFA
00000BEF
00000BE8
00000BDB
00000BCB
00000BCC
00000BCE
00000BCB
00000BCF
00000BCF
00000BD3
00000BED
00000BF5
00000BFE
00000C00
00000C07
00000C03
00000C05
00000BFD
00000000
00000BDC
00000BD9
00000BCA
00000BD2
00000BCD
00000BCD
00000BD0
00000BD9
00000BE9
00000BF4
00000BF7
00000BF8
00000C02
00000C07
00000C01
00000C0E
00000BFB
00000BEC
00000BDF
00000BD1
00000BD0
00000BD0
00000BCD
00000BCE
00000BD2
00000BCF
00000BE5
00000BF0
00000BF9
00000BFB
00000C01
00000C0A
00000C05
00000C04
00000C01
00000BF1
00000BDE
00000BD6
00000BD0
00000BD0
00000BCF
00000BCD
00000BD0
00000BD9
00000BE5
00000BF4
00000BFD
00000BFB
00000BFF
00000C00
00000C02
00000C06
00000BFB
00000BEB
00000BDC
00000BD5
00000BD0
00000BD1
00000BCD
00000BCF
00000BD0
00000BD5
00000BDE
00000BF2
00000BFA
00000BFA
00000C04
00000C07
00000000
00000470
000004B1
000004A5
00000497
00000493
0000048C
00000495
0000048E
00000483
0000048C
00000490
00000499
000004A1
000004A6
000004C4
000004BC
000004C2
000004BA
000004BC
000004B1
000004A8
0000049D
00000492
00000491
0000048D
00000483
0000048E
00000490
00000490
000004A9
000004B0
000004B6
000004B6
000004BA
000004BD
000004BB
000004B5
000004AD
000004A3
0000049C
00000493
0000048E
00000487
00000489
0000048F
0000048D
00000494
000004A3
000004B0
000004B5
000004B8
000004C1
000004BD
000004BB
000004BE
000004B2
000004A7
00000494
00000497
00000488
0000048F
00000488
0000048A
0000048F
00000492
000004A4
000004AD
000004B5
00000000
000004BC
000004BB
000004B6
00000C28
00000BFE
00000BE6
00000BE8
00000BCF
00000BCF
00000BD0
00000BCA
00000BD9
00000BD2
00000BDB
00000BDF
00000BF4
00000BF7
00000BFA
00000C03
00000C00
00000C07
00000C04
00000C03
00000BF5
00000BE2
00000BD7
00000BD3
00000BD2
00000BCB
00000BD0
00000BD0
00000BD3
00000BDF
00000BF0
00000BF6
00000BF7
00000BF9
00000C00
00000C06
00000C00
00000C0B
00000BF0
00000BDE
00000BDA
00000BD1
00000BD2
00000BCB
00000BCE
00000BCE
00000BD5
00000BDE
00000BEE
00000BF6
00000BFB
00000C05
00000C07
00000C06
00000BFF
00000BF7
00000BE3
00000BDF
00000BDA
00000BD2
00000BD0
00000BCE
00000BC7
00000BD0
00000BD6
00000000
00000BF0
00000BF7
00000BF7
00000C00
00000C15
00000BFE
00000BFE
00000BEF
00000BEC
00000BDD
00000BF3
00000BD2
00000BC4
00000BC3
00000BCE
00000BD1
00000BD7
00000BE1
00000BEE
00000BF3
00000BFC
00000C06
00000C07
00000C06
00000C05
00000BFF
00000BED
00000BE0
00000BDA
00000BD5
00000BC8
00000BCF
00000BCA
00000BD6
00000BD3
00000BD8
00000BE8
00000BF5
00000BF7
00000BFA
00000C01
00000C06
00000C04
00000C03
00000BF6
00000BE0
00000BDE
00000BCC
00000BD0
00000BCB
00000BCA
00000BD2
00000BD7
00000BDC
00000BF2
00000BF7
00000BFA
00000C04
00000C07
00000C05
00000C04
00000BFF
00000BEE
00000BDC
00000BD7
00000BD2
00000BD0
00000BCF
00000000
00000BD1
00000BD5
00000BE5
00000BE6
00000BF5
00000BFA
00000C04
00000C06
00000C06
00000BE2
00000C02
00000BE9
00000BDF
00000BD7
00000BD5
00000BD0
00000BCD
00000BCF
00000BCE
00000BD5
00000BE8
00000BF3
00000BFB
00000BFF
00000BFF
00000C06
00000C06
00000C05
00000BFE
00000BE9
00000BDF
00000BD6
00000BD1
00000BD2
00000BCD
00000BCA
00000BD5
00000BD4
00000BE5
00000BF3
00000BF6
00000BFB
00000C05
00000C06
00000C06
00000C05
00000C02
00000BF4
00000BDC
00000BD7
00000BD3
00000BD1
00000BC7
00000BCD
00000BD4
00000BD5
00000BE3
00000BF3
00000BF9
00000BFC
00000C01
00000C0B
00000C05
00000C06
00000BFC
00000BEC
00000BE0
00000BDA
00000000
00000BCC
00000BB5
00000BCA
00000BD2
00000BD7
00000BDA
00000BEE
00000BD9
00000BF0
00000C10
00000C03
00000C00
00000C04
00000C03
00000BF6
00000BE0
00000BDC
00000BCF
00000BD1
00000BCC
00000BCC
00000BD2
00000BD7
00000BDE
00000BF2
00000BF9
00000BFE
00000C04
00000C07
00000C01
00000C04
00000BFF
00000BEA
00000BDE
00000BD4
00000BD0
00000BCE
00000BCD
00000BCB
00000BD0
00000BD2
00000BEB
00000BF2
00000BF7
00000BFC
00000C04
00000C09
00000BFF
00000BFC
00000BF7
00000BE9
00000BDE
00000BD7
00000BD0
00000BCD
00000BCE
00000BCD
00000BD1
00000BD5
00000BD9
00000BF2
00000BF7
00000BFA
00000BF8
00000C07
00000C04
00000C04
00000C01
00000000
00000BDA
00000BD7
00000BD3
00000BD0
00000BCF
00000BC5
00000BD4
00000BD2
00000BDB
00000BF0
00000BF5
00000BF9
00000C04
00000C09
00000C09
00000474
000004B1
000004AC
000004A2
00000497
0000048C
0000048C
00000480
0000048A
0000048A
0000048F
00000495
000004A9
000004AC
000004B4
000004BF
000004B9
000004B8
000004BE
000004B2
000004A6
00000496
00000492
0000048D
0000048B
00000488
0000048B
0000048F
0000048F
000004A6
000004A7
000004BA
000004B7
000004BD
000004BA
000004BA
000004B6
000004B2
000004AA
0000049C
0000048E
00000490
0000048C
00000488
0000048D
00000491
00000492
000004A4
000004AC
000004B3
000004B7
000004E9
000004BE
00000000
000004B5
000004B3
000004A8
00000462
0000048C
00000497
00000486
00000490
0000048C
0000048F
00000494
000004A5
000004AE
000004B3
000004B9
000004BC
000004B9
000004BE
00000C28
00000BFC
00000BEE
00000BE0
00000BD5
00000BD2
00000BCC
00000BCD
00000BCC
00000BD2
00000BD5
00000BDF
00000BF0
00000BF7
00000BFA
00000C02
00000C09
00000C06
00000C06
00000BFF
00000BF2
00000BDA
00000BD7
00000BCE
00000BCD
00000BCB
00000BCE
00000BD2
00000BD7
00000BE5
00000BF1
00000BFB
00000BFB
00000BFB
00000C04
00000C08
00000C08
00000BF3
00000BE0
00000BD9
00000BD8
00000BD2
00000BCF
00000BC9
00000BC8
00000BCA
00000BCC
00000BDB
00000BF7
00000BF7
00000000
00000C02
00000C05
00000C13
00000C04
00000BFF
00000BED
00000BDE
00000BD2
00000BD2
00000BD1
00000BCA
00000BD2
00000BD4
00000BD8
00000BF0
00000BF8
00000BFA
00000C03
00000C0A
00000C06
00000C06
00000C01
00000BF4
00000BE1
00000BD9
00000BD2
00000BD1
00000BCE
00000BCB
00000BD1
00000BD3
00000BDE
00000BED
00000BEF
00000BFA
00000BFF
00000C04
00000C0B
00000C05
00000BFF
00000BF2
00000BE9
00000BDE
00000BD5
00000BD2
00000BD2
00000BCD
00000BCB
00000BD2
00000BD7
00000BE0
00000BEC
00000BF7
00000BFA
00000C06
00000C06
00000C01
00000C06
00000C00
00000BF2
00000BC2
00000BD7
00000BC8
00000BD1
00000BCC
00000BD2
00000BD2
00000BD2
00000000
00000BF2
00000BFB
00000BFD
00000C03
00000C05
00000C06
00000C04
00000BFE
00000BED
00000BDF
00000BD4
00000BD2
00000BD2
00000BCB
00000BCD
00000BD2
00000BD1
00000BDC
00000BEE
00000BF5
00000BF7
00000BFF
00000BFF
00000C02
00000C02
00000C01
00000BF4
00000BE1
00000BD9
00000BD3
00000BD2
00000BCA
00000BCC
00000BCA
00000BD3
00000BD6
00000BE8
00000BF3
00000BFE
00000BFE
00000BFF
00000C00
00000C08
00000C03
00000BF0
00000BE6
00000BD7
00000BD5
00000BD0
00000BCF
00000BC3
00000BCE
00000BD3
00000BDB
00000BEE
00000BF4
00000BFE
00000BF7
00000C02
00000C05
00000C02
00000BFB
00000BEB
00000BDC
00000BCE
00000BE8
00000BCE
00000BC7
00000000
00000BD2
00000BD7
00000BE3
00000BF2
00000BF4
00000BFE
00000BFF
00000BFF
00000C00
00000C08
00000C02
00000BF2
00000BDF
00000BD3
00000BD3
00000BD0
00000BCE
00000BCB
00000BD2
00000BD5
00000BE3
00000BE8
00000BF6
00000BFA
00000BFE
00000C01
00000C06
00000C00
00000C02
00000BF3
00000BDF
00000BD6
00000BD0
00000BCF
00000BCA
00000BD0
00000BD0
00000BD8
00000BE6
00000BF0
00000BF7
00000BFE
00000BFF
00000C03
00000C01
00000C08
00000BFD
00000BED
00000BDF
00000BD9
00000BD3
00000BCB
00000BCD
00000BFA
00000BD2
00000BCE
00000BE0
00000BF0
00000BF6
00000C0E
00000C04
00000BF7
00000BFF
00000C02
00000C02
00000BF8
00000BDE
00000BD3
00000000
00000BD0
00000BCF
00000BCB
00000BCF
00000BD5
00000BE0
00000BF4
00000BF7
00000BFE
00000BFE
00000C00
00000C06
00000C02
00000BFF
00000BEB
00000BDC
00000BD4
00000BD1
00000BCB
00000BCD
00000BCD
00000BCD
00000BD2
00000BE6
00000BF5
00000BFA
00000BFB
00000C02
00000C06
00000C0A
0000047B
000004AB
0000049F
00000498
00000491
0000048E
0000048C
0000048A
00000483
0000048E
0000048F
0000049A
000004AD
000004AF
000004B4
000004BC
000004B0
000004BE
000004BA
000004D5
000004AF
000004A1
00000495
00000490
0000048C
00000491
0000048A
0000048E
0000048D
0000049E
000004AF
000004AA
000004B6
000004BD
000004B9
000004BD
000004B9
000004B6
00000000
00000499
00000497
0000048F
00000484
00000489
0000048E
0000048A
00000492
000004A2
000004A9
000004B1
000004BC
000004BA
000004BC
000004B9
000004B8
000004B2
000004AA
0000049A
00000492
00000490
0000048B
0000048B
0000048B
0000048C
0000048F
0000049A
000004AC
000004B1
000004B6
000004BC
000004BC
000004BB
00000C2C
00000BFF
00000BEE
00000BDC
00000BDA
00000BD3
00000BCE
00000BCA
00000BCD
00000BD1
00000BD0
00000BE1
00000C0A
00000BFB
00000BFF
00000BFF
00000C03
00000C05
00000C12
00000BFB
00000BF1
00000BD8
00000BDB
00000BD0
00000BCF
00000BCC
00000BCF
00000BD7
00000BD3
00000BE5
00000BF0
00000BF8
00000BFF
00000BFE
00000BFF
00000000
00000C04
00000BFA
00000BE8
00000BDC
00000BD9
00000BD1
00000BCC
00000BC4
00000BCB
00000BD2
00000BD5
00000BE8
00000BF4
00000BF5
00000BF8
00000C02
00000C07
00000C06
00000C01
00000BFB
00000BF3
00000BDA
00000BD7
00000BD0
00000BCE
00000BCA
00000BD0
00000BD1
00000BD5
00000BE9
00000BF3
00000BF7
00000BFF
00000C05
00000C05
00000C08
00000C05
00000BFA
00000BEE
00000BDF
00000BD7
00000BEA
00000BD1
00000BC3
00000BCC
00000BE4
00000BD2
00000BFB
00000BF7
00000BE5
00000BFC
00000C05
00000C07
00000C07
00000C08
00000C05
00000BF6
00000BE1
00000BD7
00000BD7
00000BC6
00000BCF
00000BCB
00000BD8
00000BD7
00000BDE
00000BF0
00000BF3
00000000
00000C04
00000C06
00000C08
00000C04
00000C02
00000BF6
00000BE6
00000BD7
00000BD3
00000BCD
00000BCB
00000BCF
00000BD0
00000BD7
00000BF7
00000BF4
00000BF6
00000BFE
00000BFF
00000BFF
00000BFF
00000BFE
00000BF3
00000BEA
00000BDE
00000BD5
00000BD3
00000BCF
00000BCB
00000BCB
00000BD2
00000BD1
00000BE6
00000BEF
00000BF7
00000BFD
00000C04
00000BEA
00000BFF
00000BFC
00000BF7
00000BEF
00000BDE
00000BB9
00000BC5
00000BCD
00000BCA
00000BD3
00000BD1
00000BD5
00000BE8
00000BF6
00000BE8
00000BFF
00000BFC
00000C04
00000C05
00000C04
00000BF8
00000BEB
00000BDC
00000BD5
00000BD0
00000BCE
00000BCE
00000BCD
00000BCE
00000BD3
00000000
00000BF2
00000BDB
00000BDF
00000BC9
00000BD1
00000BCD
00000BCD
00000BD1
00000BDA
00000BEA
00000BF2
00000BFE
00000BF7
00000C04
00000C09
00000C01
00000C0D
00000BF6
00000BDD
00000BDA
00000BD0
00000BCE
00000BCB
00000BCF
00000BCC
00000BD5
00000BD2
00000BEA
00000BF3
00000BFA
00000BEC
00000BFF
00000BFB
00000BFE
00000BF9
00000BF6
00000BD3
00000BE5
00000BCF
00000BCE
00000BD1
00000BCB
00000BCE
00000BCC
00000BD7
00000BE1
00000BED
00000BF6
00000BFB
00000BFD
00000C02
00000C06
00000C03
00000C02
00000BE3
00000BDA
00000BD5
00000BCF
00000BCD
00000BCD
00000BCE
00000BCD
00000BDA
00000BE5
00000BF5
00000BFA
00000BF8
00000BFF
00000000
00000C05
00000BFF
00000BF4
00000BE1
00000BDC
00000BD3
00000BCD
00000BCF
00000BCA
00000BCB
00000BD1
00000BD8
00000BE6
00000BF0
00000BFA
00000BFB
00000BFF
00000C02
00000C07
00000C05
00000C03
00000BEF
00000BD9
00000BCB
00000BD0
00000BCE
00000BC6
00000BCB
00000BCF
00000BD6
00000BE5
00000BF3
00000BF8
00000BFB
00000C01
00000C0A
00000C13
00000C05
00000C04
00000BF2
00000BE3
00000BDA
00000BD3
00000BD1
00000BCC
00000BC9
00000BD0
00000BD7
00000BDF
00000BEA
00000BF7
00000BFE
00000C01
00000C09
00000C07
00000C04
00000C04
00000BF7
00000BE9
00000BDD
00000BD3
00000BD1
00000BD2
00000BCD
00000BD0
00000BCD
00000BD7
00000BF0
00000000
00000BFD
00000C01
00000C0A
00000C02
00000C08
00000C02
00000BF8
00000BE8
00000BDE
00000BD1
00000BCE
00000BCF
00000BCC
00000BCE
00000BCF
00000BD8
00000BE5
00000BF4
00000BFB
00000BFB
00000BFE
00000C03
00000C08
00000C04
00000BF9
00000BE5
00000BDC
00000BD3
00000BD2
00000BD1
00000BCD
00000BD5
00000BDF
00000BDF
00000BF0
00000BF7
00000BF7
00000B95
00000C02
00000C0D
00000C08
00000BFE
00000BEB
00000BD9
00000BDA
00000BCF
00000BD2
00000BCE
00000BCC
00000BD0
00000BD9
00000BED
00000BF3
00000BFA
00000BFD
00000C05
00000C0A
00000C07
00000C03
00000BFF
00000BEC
00000BDD
00000BDA
00000BCF
00000BCD
00000BCE
00000BC7
00000BD3
00000000
00000BE1
00000BF3
00000BF8
00000BFC
00000BFF
00000C02
00000C08
00000C06
00000C02
00000BF6
00000BE3
00000BDC
00000BD3
00000BD5
00000BC7
00000BCD
00000BD0
00000BD7
00000BDF
00000BF3
00000BF6
00000BF8
00000C05
00000C07
00000C0A
00000C03
00000C00
00000BEE
00000BE0
00000BD7
00000BD2
00000BC5
00000BC8
00000BCF
00000BCD
00000BD9
00000BDE
00000BEF
00000BDD
00000C0C
00000C05
00000C07
00000C06
00000473
000004AE
000004A9
0000049B
00000490
0000048D
00000485
00000488
00000486
00000489
00000492
0000049B
000004AD
000004B1
000004B6
000004B7
000004BB
000004BA
000004B8
000004B3
000004A5
0000049C
00000490
0000048D
0000048A
00000000
00000486
0000048E
00000494
0000049D
000004AF
000004B3
000004B5
000004B8
000004B6
000004BD
000004B8
000004AE
000004A5
00000498
00000494
0000048B
0000048C
0000048B
0000048B
0000048D
00000493
000004A5
000004AB
000004B4
000004B5
000004B4
000004B9
000004BB
000004B7
000004B0
000004A4
00000496
0000049B
00000494
00000490
0000048C
0000048B
0000048A
00000464
0000049B
000004A0
000004B4
000004BA
000004BE
000004C0
000004BF
00000C43
00000BFB
00000BEE
00000BE1
00000BDE
00000BD1
00000BD4
00000BCE
00000BCE
00000BD0
00000BD4
00000BDA
00000BEF
00000BF3
00000BF6
00000BFF
00000BFF
00000C02
00000C08
00000BFF
00000BF0
00000BE9
00000000
00000BD3
00000BD4
00000BCE
00000BCE
00000BD1
00000BD4
00000BDA
00000BEB
00000BF5
00000BFC
00000BFF
00000C00
00000C0B
00000C0B
00000C02
00000BF7
00000BE5
00000BDB
00000BD2
00000BCD
00000BCD
00000BCC
00000BC1
00000BD6
00000BDE
00000BEB
00000BF5
00000BFB
00000C01
00000C0A
00000C08
00000C05
00000BF2
00000BE5
00000BDF
00000BD4
00000BC9
00000BCE
00000BAE
00000BC8
00000BE6
00000BDE
00000BE7
00000BF5
00000BFF
00000BFF
00000BFF
00000C03
00000C06
00000C02
00000BF5
00000BE0
00000BD6
00000BD2
00000BD1
00000BCE
00000BCC
00000BD3
00000BD8
00000BE3
00000BF0
00000BF8
00000C02
00000C07
00000C06
00000BFF
00000BFF
00000BF9
00000000
00000BE0
00000BDE
00000BCD
00000BCD
00000BCC
00000BCD
00000BCE
00000BD8
00000BE6
00000BF0
00000BFD
00000C01
00000C06
00000C08
00000C09
00000C06
00000BFF
00000BEE
00000BDF
00000BD4
00000BD3
00000BD1
00000BCE
00000BC6
00000BCE
00000BD1
00000BD9
00000BE9
00000BF0
00000BFE
00000BFC
00000C05
00000BEE
00000BF1
00000BF9
00000BF6
00000BE5
00000BE0
00000BB4
00000BBB
00000BD1
00000BCE
00000BCA
00000BCC
00000BD6
00000BDE
00000BED
00000BF6
00000BFC
00000BFD
00000C03
00000C08
00000C09
00000C06
00000BF2
00000BE8
00000BD7
00000BD1
00000BD0
00000BC8
00000BCD
00000BCD
00000BD8
00000BDF
00000BEE
00000BF9
00000BFC
00000C01
00000000
00000C05
00000C03
00000BFF
00000BE9
00000BDE
00000BD8
00000BCF
00000BC9
00000BCE
00000BCA
00000BD0
00000BD5
00000BDF
00000BE9
00000BF3
00000BF9
00000C01
00000C05
00000C05
00000C08
00000C05
00000BF6
00000BE0
00000BDC
00000BD2
00000BCD
00000BCD
00000BC9
00000BCE
00000BD3
00000BDB
00000BF0
00000BF4
00000BF8
00000C01
00000C06
00000C01
00000C06
00000B86
00000BED
00000BE1
00000BD8
00000BCC
00000BD0
00000BD0
00000BD2
00000BCF
00000BD4
00000BDE
00000BEB
00000BF5
00000BFA
00000C03
00000C08
00000C06
00000C0D
00000C01
00000BF7
00000BE1
00000BD6
00000BD0
00000BD1
00000BC6
00000BCF
00000BCA
00000BCE
00000BDE
00000BF0
00000000
00000BFB
00000C01
00000C06
00000C09
00000C06
00000C00
00000BF4
00000BE0
00000BDA
00000BCF
00000BCD
00000BCB
00000BCD
00000BCB
00000BDA
00000BE4
00000BF1
00000BFB
00000BFD
00000C03
00000C07
00000C08
00000C05
00000BFE
00000BED
00000BE3
00000BD7
00000BD4
00000BD0
00000BCF
00000BC8
00000BCE
00000BBE
00000BE3
00000BF0
00000BFA
00000BFA
00000BFF
00000BE4
00000C14
00000BFF
00000BF7
00000BE7
00000BE0
00000BD7
00000BD1
00000BD4
00000BCE
00000BCE
00000BD0
00000BDA
00000BE5
00000BF0
00000BF6
00000BFE
00000C01
00000C0B
00000C09
00000474
000004AE
000004A3
00000497
00000492
0000048B
0000048B
0000048D
00000488
0000048D
00000000
0000049B
000004A8
000004B2
000004B6
000004C0
000004BA
000004BD
000004B6
000004B2
000004A5
00000498
00000494
0000048E
00000488
0000048B
0000048B
0000048E
00000494
000004A5
000004AB
000004B6
000004B9
000004BB
000004BD
000004BA
000004B9
000004AB
000004A0
0000049A
0000048E
00000485
00000486
00000491
0000048B
00000490
0000049E
000004A6
000004BE
000004B1
000004C2
000004B7
000004C0
000004BB
000004B9
000004B3
000004A9
0000049E
00000492
0000048E
0000048D
0000048C
0000048A
0000048C
00000491
0000049F
000004A9
000004AE
000004B5
000004BB
000004B6
000004B9
00000C43
00000BFF
00000BEF
00000BDF
00000BD9
00000BD3
00000BCF
00000000
00000BC9
00000BCB
00000BD4
00000BD8
00000BEF
00000BF0
00000BF7
00000BFB
00000C05
00000C06
00000C03
00000C04
00000BF6
00000BE5
00000BDA
00000BD3
00000BCD
00000BCE
00000BC7
00000BCD
00000BD3
00000BDC
00000BED
00000BF3
00000BFB
00000BFD
00000C02
00000C05
00000C05
00000C00
00000BED
00000BD5
00000BCD
00000BC9
00000BCB
00000BC7
00000BCB
00000BB0
00000BCA
00000BE7
00000BF1
00000BF6
00000BFE
00000C04
00000C06
00000C02
00000C05
00000BFA
00000BEC
00000BDD
00000BD4
00000BCE
00000BCE
00000BCD
00000BCB
00000BCC
00000BD6
00000BDF
00000BE8
00000BF3
00000BFA
00000BFF