digraph "C:/Users/agokhale/Dropbox/h_da/projects/RadarAltimeter/bitbucket/40_code/stm32f7Discovery/fmcw/inc/defines.h"
{
  edge [fontname="Helvetica",fontsize="10",labelfontname="Helvetica",labelfontsize="10"];
  node [fontname="Helvetica",fontsize="10",shape=record];
  Node1 [label="C:/Users/agokhale/Dropbox\l/h_da/projects/RadarAltimeter\l/bitbucket/40_code/stm32f7Discovery\l/fmcw/inc/defines.h",height=0.2,width=0.4,color="black", fillcolor="grey75", style="filled", fontcolor="black"];
  Node1 -> Node2 [dir="back",color="midnightblue",fontsize="10",style="solid"];
  Node2 [label="C:/Users/agokhale/Dropbox\l/h_da/projects/RadarAltimeter\l/bitbucket/40_code/stm32f7Discovery\l/fmcw/inc/adc.h",height=0.2,width=0.4,color="black", fillcolor="white", style="filled",URL="$adc_8h.html"];
  Node2 -> Node3 [dir="back",color="midnightblue",fontsize="10",style="solid"];
  Node3 [label="C:/Users/agokhale/Dropbox\l/h_da/projects/RadarAltimeter\l/bitbucket/40_code/stm32f7Discovery\l/fmcw/src/adc.c",height=0.2,width=0.4,color="black", fillcolor="white", style="filled",URL="$adc_8c.html",tooltip="ADC file for radar altimeter. ADC file for FMCW RADAR. Performs Configuration of ADC. Reads ADC data through DMA. "];
  Node2 -> Node4 [dir="back",color="midnightblue",fontsize="10",style="solid"];
  Node4 [label="C:/Users/agokhale/Dropbox\l/h_da/projects/RadarAltimeter\l/bitbucket/40_code/stm32f7Discovery\l/fmcw/src/main.c",height=0.2,width=0.4,color="black", fillcolor="white", style="filled",URL="$main_8c.html"];
  Node2 -> Node5 [dir="back",color="midnightblue",fontsize="10",style="solid"];
  Node5 [label="C:/Users/agokhale/Dropbox\l/h_da/projects/RadarAltimeter\l/bitbucket/40_code/stm32f7Discovery\l/fmcw/src/stm32f7xx_it.c",height=0.2,width=0.4,color="black", fillcolor="white", style="filled",URL="$stm32f7xx__it_8c.html"];
  Node1 -> Node6 [dir="back",color="midnightblue",fontsize="10",style="solid"];
  Node6 [label="C:/Users/agokhale/Dropbox\l/h_da/projects/RadarAltimeter\l/bitbucket/40_code/stm32f7Discovery\l/fmcw/inc/fft.h",height=0.2,width=0.4,color="black", fillcolor="white", style="filled",URL="$fft_8h.html"];
  Node6 -> Node7 [dir="back",color="midnightblue",fontsize="10",style="solid"];
  Node7 [label="C:/Users/agokhale/Dropbox\l/h_da/projects/RadarAltimeter\l/bitbucket/40_code/stm32f7Discovery\l/fmcw/src/fft.c",height=0.2,width=0.4,color="black", fillcolor="white", style="filled",URL="$fft_8c.html",tooltip="FFT file for radar altimeter. FFT file for FMCW RADAR. Performs Configuration and executes FFT on the..."];
  Node6 -> Node4 [dir="back",color="midnightblue",fontsize="10",style="solid"];
  Node1 -> Node8 [dir="back",color="midnightblue",fontsize="10",style="solid"];
  Node8 [label="C:/Users/agokhale/Dropbox\l/h_da/projects/RadarAltimeter\l/bitbucket/40_code/stm32f7Discovery\l/fmcw/src/filter.c",height=0.2,width=0.4,color="black", fillcolor="white", style="filled",URL="$filter_8c.html",tooltip="Performs filtering actions on the samples from the sensor. Filter file for FMCW RADAR. "];
  Node1 -> Node4 [dir="back",color="midnightblue",fontsize="10",style="solid"];
}
