digraph "__io_getchar"
{
  edge [fontname="Helvetica",fontsize="10",labelfontname="Helvetica",labelfontsize="10"];
  node [fontname="Helvetica",fontsize="10",shape=record];
  rankdir="LR";
  Node1 [label="__io_getchar",height=0.2,width=0.4,color="black", fillcolor="grey75", style="filled", fontcolor="black"];
  Node1 -> Node2 [dir="back",color="midnightblue",fontsize="10",style="solid"];
  Node2 [label="_read",height=0.2,width=0.4,color="black", fillcolor="white", style="filled",URL="$syscalls_8c.html#a4f9bf1e1602f2828e0a54e70c3b2dccb"];
}
