digraph "drawWave"
{
  edge [fontname="Helvetica",fontsize="10",labelfontname="Helvetica",labelfontsize="10"];
  node [fontname="Helvetica",fontsize="10",shape=record];
  rankdir="LR";
  Node1 [label="drawWave",height=0.2,width=0.4,color="black", fillcolor="grey75", style="filled", fontcolor="black"];
  Node1 -> Node2 [dir="back",color="midnightblue",fontsize="10",style="solid",fontname="Helvetica"];
  Node2 [label="performFreqCal",height=0.2,width=0.4,color="black", fillcolor="white", style="filled",URL="$main_8c.html#a629bd1402479ef2dd139eddad3695e14"];
  Node2 -> Node3 [dir="back",color="midnightblue",fontsize="10",style="solid",fontname="Helvetica"];
  Node3 [label="main",height=0.2,width=0.4,color="black", fillcolor="white", style="filled",URL="$main_8c.html#a840291bc02cba5474a4cb46a9b9566fe",tooltip="Main program. "];
}
