digraph "C:/Users/agokhale/Dropbox/h_da/projects/RadarAltimeter/bitbucket/40_code/stm32f7Discovery/fmcw/src/lcd.c"
{
  edge [fontname="Helvetica",fontsize="10",labelfontname="Helvetica",labelfontsize="10"];
  node [fontname="Helvetica",fontsize="10",shape=record];
  Node1 [label="C:/Users/agokhale/Dropbox\l/h_da/projects/RadarAltimeter\l/bitbucket/40_code/stm32f7Discovery\l/fmcw/src/lcd.c",height=0.2,width=0.4,color="black", fillcolor="grey75", style="filled", fontcolor="black"];
  Node1 -> Node2 [color="midnightblue",fontsize="10",style="solid",fontname="Helvetica"];
  Node2 [label="lcd.h",height=0.2,width=0.4,color="black", fillcolor="white", style="filled",URL="$lcd_8h.html"];
  Node2 -> Node3 [color="midnightblue",fontsize="10",style="solid",fontname="Helvetica"];
  Node3 [label="stm32746g_discovery\l_lcd.h",height=0.2,width=0.4,color="grey75", fillcolor="white", style="filled"];
}
